usr_id,feature_4,feature_5
Kim,41.5 ,31.5 
Hanman,43.0 ,33.0 
Hong,44.5 ,34.5 
Shim,46.0 ,36.0 
Kang,47.5 ,37.5 
Shinso,49.0 ,39.0 
Kogun,50.5 ,40.5 
Park,52.0 ,42.0 
Kook,53.5 ,43.5 
Yun,55.0 ,45.0 
Ka,56.5 ,46.5 
Won,58.0 ,48.0 
Cho,59.5 ,49.5 
Lee,61.0 ,51.0 
